^C:\PROJECTS\CHECKER\CHECKER.SYSTEMINFOLOADER\CHECKER.SYSTEMINFOLOADER.CPP|C:\PROJECTS\CHECKER\CHECKER.SYSTEMINFOLOADER\STDAFX.CPP
C:\PROJECTS\CHECKER\CHECKER.SYSTEMINFOLOADER\DEBUG\CHECKER.SYSTEMINFOLOADER.OBJ
C:\PROJECTS\CHECKER\CHECKER.SYSTEMINFOLOADER\DEBUG\STDAFX.OBJ
^C:\PROJECTS\CHECKER\CHECKER.SYSTEMINFOLOADER\CHECKER.SYSTEMINFOLOADER.CPP
C:\PROJECTS\CHECKER\CHECKER.SYSTEMINFOLOADER\DEBUG\VC100.PDB
C:\PROJECTS\CHECKER\CHECKER.SYSTEMINFOLOADER\DEBUG\CHECKER.SYSTEMINFOLOADER.OBJ
^C:\PROJECTS\CHECKER\CHECKER.SYSTEMINFOLOADER\STDAFX.CPP
C:\PROJECTS\CHECKER\CHECKER.SYSTEMINFOLOADER\DEBUG\VC100.PDB
^D:\PROJECTS\RDP\RDPCHECKINGSYSTEM\CHECKER\CHECKER.SYSTEMINFOLOADER\CHECKER.SYSTEMINFOLOADER.CPP|D:\PROJECTS\RDP\RDPCHECKINGSYSTEM\CHECKER\CHECKER.SYSTEMINFOLOADER\STDAFX.CPP
D:\PROJECTS\RDP\RDPCHECKINGSYSTEM\CHECKER\CHECKER.SYSTEMINFOLOADER\DEBUG\CHECKER.SYSTEMINFOLOADER.OBJ
D:\PROJECTS\RDP\RDPCHECKINGSYSTEM\CHECKER\CHECKER.SYSTEMINFOLOADER\DEBUG\STDAFX.OBJ
^D:\PROJECTS\RDP\RDPCHECKINGSYSTEM\CHECKER\CHECKER.SYSTEMINFOLOADER\CHECKER.SYSTEMINFOLOADER.CPP
D:\PROJECTS\RDP\RDPCHECKINGSYSTEM\CHECKER\CHECKER.SYSTEMINFOLOADER\DEBUG\VC110.PDB
^D:\PROJECTS\RDP\RDPCHECKINGSYSTEM\CHECKER\CHECKER.SYSTEMINFOLOADER\STDAFX.CPP
D:\PROJECTS\RDP\RDPCHECKINGSYSTEM\CHECKER\CHECKER.SYSTEMINFOLOADER\DEBUG\VC110.PDB
