^D:\PROJECTS\RDP\RDPCHECKINGSYSTEM\CHECKER.CLIENT\FRMCHECK.RESX|D:\PROJECTS\RDP\RDPCHECKINGSYSTEM\CHECKER.CLIENT\PROPERTIES\RESOURCES.RESX
D:\PROJECTS\RDP\RDPCHECKINGSYSTEM\CHECKER.CLIENT\OBJ\X86\RELEASE\CHECKER.CLIENT.FRMCHECK.RESOURCES
D:\PROJECTS\RDP\RDPCHECKINGSYSTEM\CHECKER.CLIENT\OBJ\X86\RELEASE\CHECKER.PROPERTIES.RESOURCES.RESOURCES
